<?xml version="1.0" encoding="UTF-8" standalone="no"?>
<!-- Created with Inkscape (http://www.inkscape.org/) -->

<svg
   xmlns:dc="http://purl.org/dc/elements/1.1/"
   xmlns:cc="http://creativecommons.org/ns#"
   xmlns:rdf="http://www.w3.org/1999/02/22-rdf-syntax-ns#"
   xmlns:svg="http://www.w3.org/2000/svg"
   xmlns="http://www.w3.org/2000/svg"
   xmlns:sodipodi="http://sodipodi.sourceforge.net/DTD/sodipodi-0.dtd"
   xmlns:inkscape="http://www.inkscape.org/namespaces/inkscape"
   inkscape:version="0.91 r13725"
   version="1.1"
   id="svg2"
   viewBox="0 0 184.47789 171.18724"
   height="171.18726"
   width="184.47787"
   sodipodi:docname="Default_19_sommets_(contour_100-25-0-21-15)_(fond_0-100-0-0-20).svg">
  <defs
     id="defs4" />
  <sodipodi:namedview
     inkscape:window-maximized="1"
     inkscape:window-y="0"
     inkscape:window-x="46"
     inkscape:window-height="744"
     inkscape:window-width="1320"
     showgrid="false"
     inkscape:current-layer="svg2"
     inkscape:document-units="px"
     inkscape:cy="80.912481"
     inkscape:cx="96.73605"
     inkscape:zoom="2.8"
     inkscape:pageshadow="2"
     inkscape:pageopacity="0.0"
     borderopacity="1.0"
     bordercolor="#666666"
     pagecolor="#ffffff"
     id="base"
     units="px"
     fit-margin-top="0"
     fit-margin-left="0"
     fit-margin-right="0"
     fit-margin-bottom="0" />
  <metadata
     id="metadata7">
    <rdf:RDF>
      <cc:Work
         rdf:about="">
        <dc:format>image/svg+xml</dc:format>
        <dc:type
           rdf:resource="http://purl.org/dc/dcmitype/StillImage" />
        <dc:title></dc:title>
      </cc:Work>
    </rdf:RDF>
  </metadata>
  <g
     inkscape:label="Calque 1"
     inkscape:groupmode="layer"
     id="layer1"
     transform="translate(-5.3680957,-859.76123)" />
  <path
     sodipodi:type="star"
     style="opacity:1;fill:#ff00ff;fill-opacity:0.2;fill-rule:evenodd;stroke:#0097c9;stroke-width:1.04173231;stroke-linecap:round;stroke-linejoin:miter;stroke-miterlimit:4;stroke-dasharray:none;stroke-opacity:0.15"
     id="path3387"
     sodipodi:sides="19"
     sodipodi:cx="92.857147"
     sodipodi:cy="96.428574"
     sodipodi:r1="35.364357"
     sodipodi:r2="0.35364357"
     sodipodi:arg1="-0.35049663"
     sodipodi:arg2="-0.18514965"
     inkscape:flatsided="false"
     inkscape:rounded="-10"
     inkscape:randomized="0"
     d="M 126.07143,84.285716 C 5.8404187,-244.58146 157.66621,440.53471 93.204747,96.36347 28.743286,-247.80777 135.14814,445.81551 128.21457,95.728311 121.281,-254.35889 42.423595,442.93355 93.207052,96.479863 143.99051,-249.97383 19.410943,440.61662 126.52618,107.24679 233.64142,-226.12304 -67.35376,407.78321 93.171439,96.590698 253.69664,-214.60182 -88.367216,398.11962 121.18923,117.59295 330.74568,-162.93373 -159.76978,338.89276 93.101769,96.683964 345.97331,-145.52483 -176.5069,322.92971 112.78206,125.64562 402.07103,-71.638482 -224.80975,243.72755 93.005589,96.749555 410.82092,-50.228446 -235.45682,223.19489 102.21572,130.53216 439.88825,37.869437 -255.42558,132.60022 92.893324,96.780362 441.21223,60.960506 -258.82882,109.72297 90.635225,131.72306 440.09927,153.72315 -248.29957,17.553123 92.777138,96.773048 433.85385,175.99297 -244.09018,-5.1895984 79.295514,129.08925 402.68121,263.3681 -204.20394,-88.946594 92.669623,96.728404 389.54319,282.4034 -192.83808,-109.09027 69.425416,122.91615 331.68891,354.92257 -127.91714,-175.35803 92.582429,96.651269 313.08199,368.66057 -110.62647,-190.71978 62.09451,113.87271 234.81549,418.4652 -27.706009,-232.31718 92.525004,96.550002 212.75602,425.41718 -6.3642482,-241.23231 58.097213,102.93893 122.55867,447.11016 85.570007,-253.65162 92.503573,96.435576 99.437139,446.52277 108.65015,-255.15405 57.866694,91.299645 7.0832371,437.75334 199.6357,-237.04944 92.520457,96.320391 -14.594783,429.69022 221.95313,-230.97635 61.427933,80.216163 -99.097265,391.40868 302.13028,-184.30974 92.573826,96.21693 -116.98262,376.7436 321.26656,-171.31925 68.395016,70.889547 -184.47653,313.09834 381.94686,-101.14769 92.657898,96.136403 -196.63107,293.4205 395.82828,-82.64752 78.01295,64.330481 -239.80238,211.30848 430.43609,3.4248106 92.763562,96.087538 -244.90897,188.75026 437.55839,25.429884 89.239483,61.249741 -259.07942,97.069598 442.34341,118.07572 92.879366,96.075629 -256.58467,74.075542 441.93476,141.2011 100.85805,61.981174 -240.21867,-17.238751 416.37846,230.38082 92.992764,96.101967 -230.39294,-38.176883 408.48316,252.12051 111.60959,66.445517 -185.26398,-119.22948 355.35496,328.17011 93.091465,96.163698 -169.17203,-135.84272 340.82858,346.16829 120.32901,74.158989 -100.17055,-197.85031 265.88575,400.84662 93.164774,96.254132 -79.556205,-208.33836 246.30245,413.1529 126.07143,84.285716 Z"
     transform="matrix(0.88123633,0,0,0.8163284,9.9456722,6.7407257)" />
</svg>
