<?xml version="1.0" encoding="UTF-8" standalone="no"?>
<!-- Created with Inkscape (http://www.inkscape.org/) -->

<svg
   xmlns:dc="http://purl.org/dc/elements/1.1/"
   xmlns:cc="http://creativecommons.org/ns#"
   xmlns:rdf="http://www.w3.org/1999/02/22-rdf-syntax-ns#"
   xmlns:svg="http://www.w3.org/2000/svg"
   xmlns="http://www.w3.org/2000/svg"
   xmlns:sodipodi="http://sodipodi.sourceforge.net/DTD/sodipodi-0.dtd"
   xmlns:inkscape="http://www.inkscape.org/namespaces/inkscape"
   inkscape:version="0.91 r13725"
   version="1.1"
   id="svg2"
   viewBox="0 0 185.57438 171.92021"
   height="171.92023"
   width="185.57437"
   sodipodi:docname="Default_29_sommets_(contour_100-25-0-21-15)_(fond_0-100-0-0-20).svg">
  <defs
     id="defs4" />
  <sodipodi:namedview
     inkscape:window-maximized="1"
     inkscape:window-y="0"
     inkscape:window-x="46"
     inkscape:window-height="744"
     inkscape:window-width="1320"
     showgrid="false"
     inkscape:current-layer="svg2"
     inkscape:document-units="px"
     inkscape:cy="81.25127"
     inkscape:cx="97.879253"
     inkscape:zoom="2.8"
     inkscape:pageshadow="2"
     inkscape:pageopacity="0.0"
     borderopacity="1.0"
     bordercolor="#666666"
     pagecolor="#ffffff"
     id="base"
     units="px"
     fit-margin-top="0"
     fit-margin-left="0"
     fit-margin-right="0"
     fit-margin-bottom="0" />
  <metadata
     id="metadata7">
    <rdf:RDF>
      <cc:Work
         rdf:about="">
        <dc:format>image/svg+xml</dc:format>
        <dc:type
           rdf:resource="http://purl.org/dc/dcmitype/StillImage" />
        <dc:title></dc:title>
      </cc:Work>
    </rdf:RDF>
  </metadata>
  <g
     inkscape:label="Calque 1"
     inkscape:groupmode="layer"
     id="layer1"
     transform="translate(-4.2248931,-859.36704)" />
  <path
     sodipodi:type="star"
     style="opacity:1;fill:#ff00ff;fill-opacity:0.2;fill-rule:evenodd;stroke:#0097c9;stroke-width:1.04173231;stroke-linecap:round;stroke-linejoin:miter;stroke-miterlimit:4;stroke-dasharray:none;stroke-opacity:0.15"
     id="path3387"
     sodipodi:sides="29"
     sodipodi:cx="92.857147"
     sodipodi:cy="96.428574"
     sodipodi:r1="35.364357"
     sodipodi:r2="0.35364357"
     sodipodi:arg1="-0.35049663"
     sodipodi:arg2="-0.24216585"
     inkscape:flatsided="false"
     inkscape:rounded="-10"
     inkscape:randomized="0"
     d="M 126.07143,84.285716 C 5.8499564,-244.55538 177.16323,436.25541 93.200472,96.343768 9.2377155,-243.56787 174.62491,438.70673 127.90526,91.709699 81.185606,-255.28734 102.13947,446.43376 93.210676,96.419555 84.281877,-253.59465 99.133535,448.28211 128.10027,99.354331 157.067,-249.57345 26.681689,440.24626 93.204349,96.495764 159.72701,-247.25473 23.348687,441.40521 126.64735,106.86216 229.94602,-227.68089 -45.681805,417.98223 93.181788,96.568831 232.04538,-224.84456 -49.186023,418.39758 123.61445,113.88212 296.41491,-190.63334 -111.56737,380.6827 93.144047,96.63534 297.85546,-187.41202 -115.07895,380.33504 119.14336,120.08598 353.36567,-140.16309 -167.89427,330.09177 93.09289,96.692181 354.08006,-136.70741 -171.24902,328.99735 113.44316,125.18364 398.13534,-78.630074 -212.02873,268.57501 93.030711,96.736696 398.09015,-75.101614 -215.06978,266.78501 106.78038,128.93675 428.63054,-8.9115126 -241.90706,199.00887 92.960416,96.766803 427.8279,-5.4752596 -244.49222,196.60698 99.466567,131.16981 443.42535,65.732634 -256.13219,124.64619 92.885292,96.781095 441.90278,68.916005 -258.14057,121.74472 91.843704,131.77841 441.82798,141.81209 -254.03897,48.964082 92.808852,96.778904 439.65667,144.59373 -255.37666,45.698712 84.268229,130.73409 423.91312,215.76946 -235.72527,-24.498635 92.734671,96.760331 421.19461,218.0193 -236.32973,-27.975228 77.094362,128.08568 390.51845,284.14659 -202.04742,-92.306931 92.666216,96.726246 387.37985,285.75942 -201.89038,-95.832184 70.657545,123.95702 343.20547,343.74623 -154.58016,-151.29016 92.606689,96.678242 339.79354,344.64665 -153.66897,-154.69924 65.258757,118.54116 284.18648,391.78157 -95.543006,-198.69034 92.558873,96.618564 280.66075,391.92747 -93.92027,-201.82384 61.150439,112.09134 216.22115,426.00653 -27.696472,-232.29109 92.525004,96.550002 212.74648,425.3911 -25.438065,-235.00249 58.524691,104.90915 142.48745,444.82079 45.787016,-250.52127 92.506666,96.475762 139.22632,443.4728 48.575492,-252.68379 57.504291,97.330419 66.43309,447.34462 121.47145,-252.52846 92.504716,96.399316 63.537981,445.3271 124.65961,-254.04098 58.136951,89.709515 -8.3857079,433.46001 195.81791,-238.21881 92.519245,96.324238 -10.779422,430.86729 199.25668,-239.01061 60.393089,82.402787 -78.470503,403.81618 265.35004,-208.26142 92.549574,96.254038 -80.250895,400.7695 268.87863,-208.29547 64.16721,75.751889 -140.54421,359.79925 326.8166,-164.05707 92.594285,96.192 -141.62803,356.44107 330.27001,-163.33178 69.282841,70.06781 -191.70432,303.4674 377.34347,-107.67269 92.651287,96.141023 -192.04089,299.95474 380.56022,-106.22198 75.50078,65.616331 -229.55866,237.45464 414.56808,-41.744767 92.717915,96.103492 -229.13225,233.95175 417.39776,-39.636465 82.530284,62.605599 -252.3372,164.84766 436.74984,30.643989 92.791053,96.081161 -251.16773,161.51833 439.06014,33.311299 90.04266,61.176391 -258.97482,89.041482 442.85156,106.10876 92.867282,96.075075 -257.11699,86.041392 444.53446,109.21036 97.686638,61.395535 -249.16118,13.580714 432.58793,181.12089 92.943036,96.085518 -246.70186,11.050143 433.56473,184.51175 105.1048,63.252786 -223.35514,-58.00618 406.43887,252.17291 93.014775,96.112003 -220.40932,-59.948905 406.6639,255.69448 111.95027,66.6613 -182.76337,-122.37188 365.62707,315.94249 93.079143,96.153289 -179.46879,-123.63592 365.08981,319.4301 117.90296,71.461698 -129.28389,-176.50671 312.06086,369.44785 93.133131,96.207448 -125.7946,-177.03296 310.78643,372.73843 122.68455,77.42952 -65.417334,-217.87939 248.24492,410.18713 93.174214,96.271946 -61.896495,-217.64324 246.29291,413.12681 126.07143,84.285716 Z"
     transform="matrix(0.88123633,0,0,0.8163284,11.088875,7.1349142)" />
</svg>
