<?xml version="1.0" encoding="UTF-8" standalone="no"?>
<!-- Created with Inkscape (http://www.inkscape.org/) -->

<svg
   xmlns:dc="http://purl.org/dc/elements/1.1/"
   xmlns:cc="http://creativecommons.org/ns#"
   xmlns:rdf="http://www.w3.org/1999/02/22-rdf-syntax-ns#"
   xmlns:svg="http://www.w3.org/2000/svg"
   xmlns="http://www.w3.org/2000/svg"
   xmlns:sodipodi="http://sodipodi.sourceforge.net/DTD/sodipodi-0.dtd"
   xmlns:inkscape="http://www.inkscape.org/namespaces/inkscape"
   inkscape:version="0.91 r13725"
   version="1.1"
   id="svg2"
   viewBox="0 0 184.50215 171.40185"
   height="171.40186"
   width="184.50215"
   sodipodi:docname="Default_7_sommets_(contour_100-25-0-21-15)_(fond_0-100-0-0-20).svg">
  <defs
     id="defs4" />
  <sodipodi:namedview
     inkscape:window-maximized="1"
     inkscape:window-y="0"
     inkscape:window-x="46"
     inkscape:window-height="744"
     inkscape:window-width="1320"
     showgrid="false"
     inkscape:current-layer="svg2"
     inkscape:document-units="px"
     inkscape:cy="79.777267"
     inkscape:cx="95.681592"
     inkscape:zoom="2.8"
     inkscape:pageshadow="2"
     inkscape:pageopacity="0.0"
     borderopacity="1.0"
     bordercolor="#666666"
     pagecolor="#ffffff"
     id="base"
     units="px"
     fit-margin-top="0"
     fit-margin-left="0"
     fit-margin-right="0"
     fit-margin-bottom="0" />
  <metadata
     id="metadata7">
    <rdf:RDF>
      <cc:Work
         rdf:about="">
        <dc:format>image/svg+xml</dc:format>
        <dc:type
           rdf:resource="http://purl.org/dc/dcmitype/StillImage" />
        <dc:title></dc:title>
      </cc:Work>
    </rdf:RDF>
  </metadata>
  <g
     inkscape:label="Calque 1"
     inkscape:groupmode="layer"
     id="layer1"
     transform="translate(-6.4225542,-858.41139)" />
  <path
     sodipodi:type="star"
     style="opacity:1;fill:#ff00ff;fill-opacity:0.2;fill-rule:evenodd;stroke:#0097c9;stroke-width:1.04173231;stroke-linecap:round;stroke-linejoin:miter;stroke-miterlimit:4;stroke-dasharray:none;stroke-opacity:0.15"
     id="path3387"
     sodipodi:sides="7"
     sodipodi:cx="92.857147"
     sodipodi:cy="96.428574"
     sodipodi:r1="35.364357"
     sodipodi:r2="0.35364357"
     sodipodi:arg1="-0.35049663"
     sodipodi:arg2="0.098302321"
     inkscape:flatsided="false"
     inkscape:rounded="-10"
     inkscape:randomized="0"
     d="M 126.07143,84.285716 C 5.7357414,-244.86779 58.813441,445.23204 93.209083,96.463282 127.60473,-252.30548 -59.254914,414.13169 123.05958,114.8256 305.37408,-184.48049 -201.07429,287.28754 93.04944,96.725369 387.17317,-93.836802 -250.37347,175.58723 97.304684,131.51215 444.98284,87.437069 -239.62565,-14.37766 92.744996,96.763963 425.11565,207.90559 -183.03237,-122.56531 68.200698,121.78005 319.43376,366.12541 -27.810687,-232.6035 92.525004,96.550002 212.8607,425.70351 92.059164,-255.81099 57.663522,92.957771 23.267879,441.72653 274.86962,-203.06148 92.555123,96.244603 -89.759375,395.55069 367.75159,-123.81309 73.627863,66.749079 -220.49587,257.31125 440.49082,52.002659 92.812672,96.077738 -254.86548,140.15282 436.4429,174.03127 104.07225,62.889652 -228.2984,-48.251971 344.33678,340.52042 93.103712,96.175059 -158.12935,-148.1703 246.40712,413.43922 126.07143,84.285716 Z"
     transform="matrix(0.88123633,0,0,0.8163284,8.8912149,8.0905481)" />
</svg>
